…
Counting the make of each class of car

pop_class %>%
  count(make, class) 
## # A tibble: 154 × 3
##    make             class               n
##                           
##  1 Acura            Compact Cars       91
##  2 Acura            Midsize Cars       58
##  3 Acura            Subcompact Cars    66
##  4 Alfa Romeo       Compact Cars       13
##  5 Alfa Romeo       Midsize Cars        3
##  6 Alfa Romeo       Subcompact Cars     9
##  7 ASC Incorporated Midsize Cars        1
##  8 Aston Martin     Subcompact Cars    34
##  9 Audi             Compact Cars      193
## 10 Audi             Midsize Cars      184
## # … with 144 more rows
…
